{
  "project_info": {
    "project_number": "470426416901",
    "project_id": "mi-smart-98bdf",
    "storage_bucket": "mi-smart-98bdf.appspot.com"
  },
  "client": [
    {
      "client_info": {
        "mobilesdk_app_id": "1:470426416901:android:6b155efaa1038dd5c3296c",
        "android_client_info": {
          "package_name": "mcom.app.mismart"
        }
      },
      "oauth_client": [
        {
          "client_id": "470426416901-2s4e22duj6pvp5svhd8etdjsvem2bb20.apps.googleusercontent.com",
          "client_type": 1,
          "android_info": {
            "package_name": "mcom.app.mismart",
            "certificate_hash": "cfe69f5516958d55ef4d5642aa6de65bc729a0ba"
          }
        },
        {
          "client_id": "470426416901-qccd5sc23cc1dkj8969i4vog51vq8399.apps.googleusercontent.com",
          "client_type": 1,
          "android_info": {
            "package_name": "mcom.app.mismart",
            "certificate_hash": "9b55dd814ad9085997ebadf51599176e8d533b55"
          }
        },
        {
          "client_id": "470426416901-lq3b8pclu1jfam42rjk7vcab546rme99.apps.googleusercontent.com",
          "client_type": 3
        }
      ],
      "api_key": [
        {
          "current_key": "AIzaSyD3yMerJZMZQYbrlOR7SU8G4bdKC5JqZHg"
        }
      ],
      "services": {
        "appinvite_service": {
          "other_platform_oauth_client": [
            {
              "client_id": "470426416901-lq3b8pclu1jfam42rjk7vcab546rme99.apps.googleusercontent.com",
              "client_type": 3
            },
            {
              "client_id": "470426416901-7s31gr5h0ghqcmvlkkfdsk566sffhrfg.apps.googleusercontent.com",
              "client_type": 2,
              "ios_info": {
                "bundle_id": "mcom.app.mismart"
              }
            }
          ]
        }
      }
    }
  ],
  "configuration_version": "1"
}